<?xml version="1.0" encoding="UTF-8" standalone="no"?>
<svg
   xmlns:dc="http://purl.org/dc/elements/1.1/"
   xmlns:cc="http://creativecommons.org/ns#"
   xmlns:rdf="http://www.w3.org/1999/02/22-rdf-syntax-ns#"
   xmlns:svg="http://www.w3.org/2000/svg"
   xmlns="http://www.w3.org/2000/svg"
   xmlns:sodipodi="http://sodipodi.sourceforge.net/DTD/sodipodi-0.dtd"
   xmlns:inkscape="http://www.inkscape.org/namespaces/inkscape"
   sodipodi:docname="offset.4.svg"
   inkscape:version="1.0alpha (8436fb1882, 2019-05-22, custom)"
   id="svg8"
   version="1.1"
   viewBox="0 0 1000 1000"
   height="1000"
   width="1000">
  <style
     id="style846"></style>
  <defs
     id="defs2">
    <inkscape:path-effect
       update_on_knot_move="true"
       attempt_force_join="true"
       miter_limit="4"
       offset="5"
       unit="mm"
       linejoin_type="round"
       is_visible="true"
       id="path-effect1474"
       effect="offset" />
    <inkscape:path-effect
       effect="offset"
       id="path-effect2870"
       is_visible="true"
       linejoin_type="miter-clip"
       unit="mm"
       offset="-5.5"
       miter_limit="4"
       attempt_force_join="true"
       update_on_knot_move="true" />
    <inkscape:path-effect
       update_on_knot_move="true"
       attempt_force_join="true"
       miter_limit="4"
       offset="7.6704038"
       unit="mm"
       linejoin_type="miter"
       is_visible="true"
       id="path-effect905"
       effect="offset" />
    <inkscape:path-effect
       update_on_knot_move="true"
       attempt_force_join="true"
       miter_limit="4"
       offset="2.3182348"
       unit="mm"
       linejoin_type="bevel"
       is_visible="true"
       id="path-effect1063"
       effect="offset" />
    <inkscape:path-effect
       update_on_knot_move="true"
       attempt_force_join="true"
       miter_limit="4"
       offset="5.5583416"
       unit="mm"
       linejoin_type="bevel"
       is_visible="true"
       id="path-effect889"
       effect="offset" />
    <inkscape:path-effect
       effect="offset"
       id="path-effect950"
       is_visible="true"
       linejoin_type="extrp_arc"
       unit="mm"
       offset="15.753983"
       miter_limit="4"
       attempt_force_join="true"
       update_on_knot_move="true" />
    <inkscape:path-effect
       effect="offset"
       id="path-effect944"
       is_visible="true"
       linejoin_type="round"
       unit="mm"
       offset="0"
       miter_limit="4"
       attempt_force_join="true"
       update_on_knot_move="true" />
    <inkscape:path-effect
       effect="offset"
       id="path-effect942"
       is_visible="true"
       linejoin_type="round"
       unit="mm"
       offset="8.0064153"
       miter_limit="4"
       attempt_force_join="true"
       update_on_knot_move="true" />
    <inkscape:path-effect
       effect="offset"
       id="path-effect886"
       is_visible="true"
       linejoin_type="round"
       unit="mm"
       offset="-30.114608"
       miter_limit="4"
       attempt_force_join="true"
       update_on_knot_move="true" />
    <inkscape:path-effect
       attempt_force_join="true"
       miter_limit="100"
       linejoin_type="extrp_arc"
       line_width="80"
       linecap_type="butt"
       is_visible="true"
       id="path-effect872"
       effect="join_type" />
    <inkscape:path-effect
       effect="offset"
       id="path-effect937"
       is_visible="true"
       linejoin_type="miter"
       unit="mm"
       offset="-17.560666"
       miter_limit="4"
       attempt_force_join="true"
       update_on_knot_move="true" />
    <inkscape:path-effect
       effect="offset"
       id="path-effect934"
       is_visible="true"
       linejoin_type="round"
       unit="mm"
       offset="-16.418874"
       miter_limit="4"
       attempt_force_join="true"
       update_on_knot_move="true" />
    <inkscape:path-effect
       effect="offset"
       id="path-effect902"
       is_visible="true"
       linejoin_type="round"
       unit="mm"
       offset="25.329793"
       miter_limit="4"
       attempt_force_join="true"
       update_on_knot_move="true" />
    <inkscape:path-effect
       effect="offset"
       id="path-effect900"
       is_visible="true"
       linejoin_type="round"
       unit="mm"
       offset="0"
       miter_limit="4"
       attempt_force_join="true"
       update_on_knot_move="true" />
    <inkscape:path-effect
       effect="offset"
       id="path-effect897"
       is_visible="true"
       linejoin_type="round"
       unit="mm"
       offset="0"
       miter_limit="4"
       attempt_force_join="true"
       update_on_knot_move="true" />
    <inkscape:path-effect
       effect="offset"
       id="path-effect879"
       is_visible="true"
       linejoin_type="round"
       unit="mm"
       offset="23.494393"
       miter_limit="4"
       attempt_force_join="true"
       update_on_knot_move="true" />
    <inkscape:path-effect
       effect="offset"
       id="path-effect859"
       is_visible="true"
       linejoin_type="round"
       offset="21.1"
       miter_limit="4"
       attempt_force_join="true"
       update_on_knot_move="true" />
    <inkscape:path-effect
       update_on_knot_move="true"
       attempt_force_join="false"
       miter_limit="100"
       offset="28.920632"
       linejoin_type="round"
       is_visible="true"
       id="path-effect857"
       effect="offset" />
    <inkscape:path-effect
       effect="offset"
       id="path-effect1186"
       is_visible="true"
       linejoin_type="bevel"
       offset="14.3"
       miter_limit="4"
       attempt_force_join="true"
       update_on_knot_move="true" />
    <inkscape:path-effect
       effect="offset"
       id="path-effect1179"
       is_visible="true"
       linejoin_type="round"
       offset="243.12447"
       miter_limit="4"
       attempt_force_join="true"
       update_on_knot_move="true" />
    <inkscape:path-effect
       effect="offset"
       id="path-effect967"
       is_visible="true"
       linejoin_type="extrp_arc1"
       offset="-20.22513"
       miter_limit="4"
       attempt_force_join="true"
       update_on_knot_move="true" />
    <inkscape:path-effect
       effect="offset"
       id="path-effect849"
       is_visible="true"
       linejoin_type="round"
       offset="0"
       miter_limit="4"
       attempt_force_join="true"
       update_on_knot_move="true" />
    <inkscape:path-effect
       update_on_knot_move="true"
       attempt_force_join="true"
       miter_limit="10"
       offset="100"
       linejoin_type="miter"
       is_visible="true"
       id="path-effect844"
       effect="offset" />
    <inkscape:path-effect
       update_on_knot_move="true"
       attempt_force_join="true"
       miter_limit="4"
       offset="55.889475"
       linejoin_type="round"
       is_visible="true"
       id="path-effect3310"
       effect="offset" />
    <inkscape:path-effect
       update_on_knot_move="true"
       attempt_force_join="true"
       miter_limit="4"
       offset="41.29291"
       linejoin_type="miter"
       is_visible="true"
       id="path-effect3308"
       effect="offset" />
    <inkscape:path-effect
       update_on_knot_move="true"
       attempt_force_join="true"
       miter_limit="4"
       offset="0"
       linejoin_type="round"
       is_visible="true"
       id="path-effect2742"
       effect="offset" />
    <inkscape:path-effect
       update_on_knot_move="true"
       attempt_force_join="true"
       miter_limit="4"
       offset="0"
       linejoin_type="round"
       is_visible="true"
       id="path-effect2740"
       effect="offset" />
    <inkscape:path-effect
       effect="offset"
       id="path-effect993"
       is_visible="true"
       linejoin_type="miter"
       offset="1.418028"
       miter_limit="4"
       attempt_force_join="true"
       update_on_knot_move="true" />
    <clipPath
       clipPathUnits="userSpaceOnUse"
       id="clipPath863">
      <path
         sodipodi:type="star"
         style="fill:#d4aa00;stroke-width:48.869;stroke-linejoin:round"
         id="path865"
         sodipodi:sides="5"
         sodipodi:cx="-237.93484"
         sodipodi:cy="704.16815"
         sodipodi:r1="238.39684"
         sodipodi:r2="119.19841"
         sodipodi:arg1="0.70432124"
         sodipodi:arg2="1.3326398"
         inkscape:flatsided="false"
         inkscape:rounded="0"
         inkscape:randomized="0"
         inkscape:transform-center-x="17.379295"
         inkscape:transform-center-y="-5.5936297" />
    </clipPath>
    <clipPath
       clipPathUnits="userSpaceOnUse"
       id="clipPath929">
      <path
         id="path931"
         style="d:m -248.79678000000001248, 588.46774000000004889 -116.26735999999999649, -31.15373999999999910 -116.26734999999999332, -31.15373999999999910 85.11360999999999422, -85.11360999999999422 85.11360999999999422, -85.11361999999998318 31.15373999999999910, 116.26735999999999649 z;fill:#ffff00;stroke-width:187.366;stroke-linejoin:round"
         d="M -856.56437,230.38505 -395.25711,217.05743 66.050116,203.72981 -153.06146,609.89741 -372.17303,1016.065 -614.36869,623.22503 Z"
         inkscape:connector-curvature="0" />
    </clipPath>
    <clipPath
       clipPathUnits="userSpaceOnUse"
       id="clipPath877">
      <path
         id="path879"
         style="d:m -248.79678000000001248, 588.46774000000004889 -116.26735999999999649, -31.15373999999999910 -116.26734999999999332, -31.15373999999999910 85.11360999999999422, -85.11360999999999422 85.11360999999999422, -85.11361999999998318 31.15373999999999910, 116.26735999999999649 z;fill:#ffff00;stroke-width:134.764;stroke-linejoin:round"
         d="m -628.85205,312.07715 331.93595,-2e-5 331.935847,-1e-5 L -130.94817,599.54211 -296.9161,887.00704 -462.88407,599.54211 Z"
         inkscape:connector-curvature="0" />
    </clipPath>
    <clipPath
       clipPathUnits="userSpaceOnUse"
       id="clipPath881">
      <path
         inkscape:connector-curvature="0"
         d="M -794.41366,283.40631 -391.47095,271.76489 11.471634,260.12349 -179.91791,614.90284 -371.30747,969.68212 -582.86056,626.54423 Z"
         style="d:m -248.79678000000001248, 588.46774000000004889 -116.26735999999999649, -31.15373999999999910 -116.26734999999999332, -31.15373999999999910 85.11360999999999422, -85.11360999999999422 85.11360999999999422, -85.11361999999998318 31.15373999999999910, 116.26735999999999649 z;fill:#ffff00;stroke-width:163.661;stroke-linejoin:round"
         id="path883" />
    </clipPath>
    <clipPath
       clipPathUnits="userSpaceOnUse"
       id="clipPath912">
      <path
         id="path914"
         style="opacity:0.55;fill:#ffffff;fill-opacity:0.563929;fill-rule:evenodd;stroke-width:0.358001"
         d="m -281.10843,554.28099 a 119.5101,119.19217 0 0 1 -119.5101,119.19217 119.5101,119.19217 0 0 1 -119.51011,-119.19217 119.5101,119.19217 0 0 1 119.51011,-119.19217 119.5101,119.19217 0 0 1 119.5101,119.19217 z"
         inkscape:connector-curvature="0" />
    </clipPath>
    <clipPath
       id="clipPath896"
       clipPathUnits="userSpaceOnUse">
      <path
         id="path898"
         style="opacity:0.55;fill:#ffffff;fill-opacity:0.563929;fill-rule:evenodd;stroke-width:0.358001"
         d="m -258.4662,558.28643 c 0,65.82802 -37.8192,69.37754 -103.82281,69.37754 -66.00361,0 -135.1974,-3.54952 -135.1974,-69.37754 0,-65.82802 104.2038,13.70488 136.58402,-55.50733 34.80268,-74.39017 102.43619,-10.32069 102.43619,55.50733 z"
         inkscape:connector-curvature="0"
         sodipodi:nodetypes="sssss" />
    </clipPath>
    <clipPath
       id="clipPath900"
       clipPathUnits="userSpaceOnUse">
      <path
         sodipodi:nodetypes="sssss"
         inkscape:connector-curvature="0"
         d="m 778.12348,562.10994 c 0,65.82802 -37.8192,69.37754 -103.82281,69.37754 -66.00361,0 -135.1974,-3.54952 -135.1974,-69.37754 0,-65.82802 104.2038,13.70488 136.58402,-55.50733 34.80268,-74.39017 102.43619,-10.32069 102.43619,55.50733 z"
         style="opacity:0.55;fill:#ffffff;fill-opacity:0.563929;fill-rule:evenodd;stroke-width:0.358001"
         id="path902" />
    </clipPath>
  </defs>
  <sodipodi:namedview
     inkscape:guide-bbox="true"
     showguides="true"
     inkscape:snap-text-baseline="true"
     id="base"
     pagecolor="#ff4bb1"
     bordercolor="#666666"
     borderopacity="1.0"
     inkscape:pageopacity="1"
     inkscape:pageshadow="2"
     inkscape:zoom="0.16760845"
     inkscape:cx="-87.881785"
     inkscape:cy="1253.0594"
     inkscape:document-units="px"
     inkscape:current-layer="layer1"
     inkscape:document-rotation="0"
     showgrid="true"
     inkscape:snap-grids="true"
     inkscape:snap-others="true"
     inkscape:showpageshadow="false"
     borderlayer="true"
     objecttolerance="20"
     inkscape:window-width="1920"
     inkscape:window-height="1016"
     inkscape:window-x="0"
     inkscape:window-y="27"
     inkscape:window-maximized="1"
     inkscape:object-nodes="false"
     inkscape:snap-nodes="false"
     inkscape:snap-bbox="true"
     inkscape:bbox-nodes="true"
     inkscape:pagecheckerboard="false"
     inkscape:snap-global="false"
     showborder="false"
     units="px">
    <inkscape:grid
       opacity="0.03137255"
       color="#3f3fff"
       empopacity="0.07058824"
       empcolor="#3f3fff"
       type="xygrid"
       id="grid10"
       units="mm"
       spacingx="1"
       spacingy="1"
       visible="false"
       enabled="false" />
    <sodipodi:guide
       id="guide883"
       orientation="0,-1"
       position="635.4095,1120.8173" />
    <sodipodi:guide
       id="guide885"
       orientation="1,0"
       position="1200.7151,889.6237" />
  </sodipodi:namedview>
  <metadata
     id="metadata5">
    <rdf:RDF>
      <cc:Work
         rdf:about="">
        <dc:format>image/svg+xml</dc:format>
        <dc:type
           rdf:resource="http://purl.org/dc/dcmitype/StillImage" />
        <dc:title />
      </cc:Work>
    </rdf:RDF>
  </metadata>
  <g
     inkscape:label="Layer 1"
     inkscape:groupmode="layer"
     id="layer1">
    <ellipse
       style="opacity:0.108356;fill:#ffffff;fill-opacity:0.989034;stroke-width:86.0992;stroke-linejoin:round"
       id="path963"
       cx="107.99397"
       cy="-205.49559"
       rx="335.57565"
       ry="238.56824" />
    <text
       id="text962"
       y="221.69981"
       x="-391.59827"
       style="font-style:normal;font-variant:normal;font-weight:300;font-stretch:normal;font-size:40px;line-height:1;font-family:Lato;-inkscape-font-specification:'Lato Light';text-align:center;letter-spacing:0px;word-spacing:0px;text-anchor:middle;fill:#ffffff"
       xml:space="preserve"><tspan
         y="221.69981"
         x="-391.59827"
         id="tspan960"
         sodipodi:role="line">PREVIOUS</tspan><tspan
         y="261.69986"
         x="-391.59827"
         sodipodi:role="line"
         id="tspan889">DESTRUCTIVE</tspan><tspan
         y="301.69986"
         x="-391.59827"
         sodipodi:role="line"
         id="tspan897">OFFSET</tspan><tspan
         y="341.69986"
         x="-391.59827"
         sodipodi:role="line"
         id="tspan891" /><tspan
         y="381.69986"
         x="-391.59827"
         sodipodi:role="line"
         id="tspan893" /><tspan
         y="421.69986"
         x="-391.59827"
         sodipodi:role="line"
         id="tspan1176" /></text>
    <text
       xml:space="preserve"
       style="font-style:normal;font-variant:normal;font-weight:300;font-stretch:normal;font-size:40px;line-height:0%;font-family:Lato;-inkscape-font-specification:'Lato Light';letter-spacing:0px;word-spacing:0px;fill:#ffffff"
       x="542.50665"
       y="261.69986"
       id="text855"><tspan
         sodipodi:role="line"
         id="tspan853"
         x="542.50665"
         y="261.69986">LPE OFFSET</tspan></text>
    <text
       xml:space="preserve"
       style="font-style:normal;font-variant:normal;font-weight:300;font-stretch:normal;font-size:64.7611px;line-height:1;font-family:Lato;-inkscape-font-specification:'Lato Light';text-align:center;letter-spacing:0px;word-spacing:0px;text-anchor:middle;fill:#ffffff;fill-opacity:0.563929;stroke-width:1.61902"
       x="107.93227"
       y="-12.83263"
       id="text926"><tspan
         id="tspan924"
         sodipodi:role="line"
         x="107.93227"
         y="-12.83263"
         style="fill:#ffffff;fill-opacity:0.563929;stroke-width:1.61902">GROUPS</tspan></text>
    <g
       id="g968"
       transform="matrix(0.63730585,0,0,0.63730585,-527.06541,455.33698)">
      <path
         id="path962"
         d="M 163.15,27.83 28.81,165.3 C -16.58,221.51 59.7,214.97 92.4,231.16 104.13,243.15 47.44,252 59.17,264 c 11.73,11.99 70.93,23.1 82.68,35.09 11.73,11.99 -24.01,24.71 -12.28,36.7 11.73,11.99 38.86,0.63 43.94,28.31 3.62,19.78 48.89,8.5 71.03,-7.7 11.73,-12 -22.44,-10.87 -10.71,-22.86 29.17,-29.83 56.33,-10.84 66.31,-40.73 4.93,-14.77 -42.94,-22.77 -31.19,-34.76 33.75,-19.71 150.4,-32.54 95.05,-87.89 L 224.75,27.83 c -17.03,-16.35 -45.45,-16.53 -61.6,0 z m 154.31,264.98 c 0,6.82 50.25,11.29 50.25,-1.61 -7.16,-20.72 -44.31,-19.32 -50.25,1.61 z M 91.1,329.05 c 11.9,10.29 30.28,-2.56 35.79,-16.92 -11.53,-15.32 -54.69,0.55 -35.79,16.92 z m 220.06,-22.23 c -15.34,13.76 1.72,27.72 16.84,18.83 3.37,-3.42 -0.09,-15.41 -16.84,-18.83 z"
         inkscape:connector-curvature="0"
         style="fill:#702270;fill-opacity:1;stroke:none" />
      <path
         id="path964"
         d="m 131,238.6 c 3.59,2.23 57.89,13.26 71.16,15.46 4.6,0.97 1.34,5.71 -5,8.91 -14.3,3.8 -83.66,-24.37 -66.16,-24.37 z"
         fill="white"
         inkscape:connector-curvature="0" />
      <path
         id="path966"
         d="m 216.63,37.47 53.15,53.98 c 5.04,5.15 4.97,15.13 2.15,18 L 245.54,88.34 240.35,119.6 218.3,107.96 182.99,130.27 171.3,83.24 152.33,116.06 h -29 c -11.82,0 -13.21,-15 -2.47,-25.74 18.76,-20.25 40.29,-40.89 51.99,-52.85 11.76,-12.02 32.25,-11.68 43.78,0 z"
         fill="white"
         inkscape:connector-curvature="0" />
    </g>
    <g
       inkscape:path-effect="#path-effect1474"
       transform="matrix(0.63730585,0,0,0.63730585,528.84867,459.66415)"
       id="inkscape-logo">
      <path
         inkscape:original-d="M 163.15,27.83 28.81,165.3 C -16.58,221.51 59.7,214.97 92.4,231.16 104.13,243.15 47.44,252 59.17,264 c 11.73,11.99 70.93,23.1 82.68,35.09 11.73,11.99 -24.01,24.71 -12.28,36.7 11.73,11.99 38.86,0.63 43.94,28.31 3.62,19.78 48.89,8.5 71.03,-7.7 11.73,-12 -22.44,-10.87 -10.71,-22.86 29.17,-29.83 56.33,-10.84 66.31,-40.73 4.93,-14.77 -42.94,-22.77 -31.19,-34.76 33.75,-19.71 150.4,-32.54 95.05,-87.89 L 224.75,27.83 c -17.03,-16.35 -45.45,-16.53 -61.6,0 z m 154.31,264.98 c 0,6.82 50.25,11.29 50.25,-1.61 -7.16,-20.72 -44.31,-19.32 -50.25,1.61 z M 91.1,329.05 c 11.9,10.29 30.28,-2.56 35.79,-16.92 -11.53,-15.32 -54.69,0.55 -35.79,16.92 z m 220.06,-22.23 c -15.34,13.76 1.72,27.72 16.84,18.83 3.37,-3.42 -0.09,-15.41 -16.84,-18.83 z"
         style="fill:#702270;fill-opacity:1;stroke:none"
         inkscape:connector-curvature="0"
         d="m 193.65625,-3.3984375 c -15.85841,-0.03171 -32.04861,5.766893 -44.02148,18.0214845 L 15.294922,152.09375 a 18.897638,18.897638 0 0 0 -1.1875,1.33398 c -28.504238,35.29904 -21.8164482,62.40028 7.128906,76 9.061419,4.25743 20.237589,7.01824 31.011719,9.5293 -12.84361,8.59868 -23.105824,21.35768 -6.585938,38.25781 7.034512,7.19044 21.948016,13.27217 37.259766,18.5293 -16.365847,10.79526 -24.58363,29.93271 -4.195313,47.5918 a 18.897638,18.897638 0 0 0 0.01172,0.01 c 11.563869,9.99935 25.005079,10.15006 36.894529,5.10547 0.1738,0.18469 0.24897,0.36801 0.42969,0.55274 5.26253,5.37917 11.34448,8.10944 16.43359,9.70703 23.17008,7.27362 20.98103,0.92944 22.42383,8.79101 7.88681,43.0942 73.33074,24.23275 100.7793,4.14844 a 18.897638,18.897638 0 0 0 2.35351,-2.04101 c 13.21739,-13.52164 8.94811,-24.58106 2.16407,-31.99805 9.2729,-4.51525 19.21404,-6.20037 28.46875,-9.27735 6.71695,16.08031 27.55779,26.15149 48.89257,13.60743 a 18.897638,18.897638 0 0 0 3.88282,-3.02735 c 6.48008,-6.57622 8.19766,-13.85469 6.84765,-20.82226 8.66095,-0.3699 16.50432,-1.65926 21.3086,-3.61719 6.94724,-2.83127 16.99218,-9.65346 16.99219,-23.27539 a 18.897638,18.897638 0 0 0 -1.03711,-6.17188 C 378.60121,264.85412 358.49299,256.91397 341.47656,257.5 c -10.97106,0.37784 -22.97343,4.48049 -31.66992,12.80273 -2.23475,-2.0867 -4.64292,-3.97457 -7.05469,-5.60351 0.13049,-0.0436 0.20848,-0.0753 0.33985,-0.11914 35.54235,-11.86591 101.28075,-27.9094 93.97461,-73.88086 -1.93873,-12.19879 -9.28115,-23.47613 -19.69532,-33.89258 L 238.25781,14.615234 a 18.897638,18.897638 0 0 0 -0.41992,-0.417968 C 225.61785,2.4651697 209.43827,-3.3668805 193.65625,-3.3984375 Z"
         id="path943" />
      <path
         inkscape:original-d="m 131,238.6 c 3.59,2.23 57.89,13.26 71.16,15.46 4.6,0.97 1.34,5.71 -5,8.91 -14.3,3.8 -83.66,-24.37 -66.16,-24.37 z"
         inkscape:connector-curvature="0"
         fill="white"
         d="m 131,219.70117 c -3.27105,0 -16.68876,0.59602 -20.84961,14.13086 -3.74477,12.18136 5.14745,20.22969 7.30859,22.00586 12.09055,9.93682 65.46646,30.46887 84.55469,25.39649 a 18.897638,18.897638 0 0 0 3.66211,-1.39258 c 15.67604,-7.9122 34.69777,-37.03551 0.38281,-44.27149 A 18.897638,18.897638 0 0 0 205.25,235.41797 c -6.79772,-1.12698 -64.2793,-12.8711 -64.2793,-12.87109 A 18.897638,18.897638 0 0 0 131,219.70117 Z"
         id="path945" />
      <path
         inkscape:original-d="m 216.63,37.47 53.15,53.98 c 5.04,5.15 4.97,15.13 2.15,18 L 245.54,88.34 240.35,119.6 218.3,107.96 182.99,130.27 171.3,83.24 152.33,116.06 h -29 c -11.82,0 -13.21,-15 -2.47,-25.74 18.76,-20.25 40.29,-40.89 51.99,-52.85 11.76,-12.02 32.25,-11.68 43.78,0 z"
         inkscape:connector-curvature="0"
         fill="white"
         d="M 194.92578,9.6855469 C 182.24893,9.618484 169.11721,14.264327 159.3418,24.255859 147.98528,35.864742 126.38504,56.610093 107.45898,76.998047 87.766562,96.744707 90.375859,134.95898 123.33008,134.95898 h 29 a 18.897638,18.897638 0 0 0 11.40039,-3.83007 l 0.91992,3.69921 a 18.897638,18.897638 0 0 0 28.43359,11.41797 l 26.06446,-16.46679 12.3789,6.5332 a 18.897638,18.897638 0 0 0 27.36914,-13.08789 l 1.22852,0.98242 a 18.897638,18.897638 0 0 0 25.28516,-1.51367 c 11.86925,-12.0797 8.01937,-34.09516 -2.125,-44.460938 a 18.897638,18.897638 0 0 0 -0.041,-0.04102 L 230.0957,24.212891 a 18.897638,18.897638 0 0 0 -0.0156,-0.01758 C 220.50826,14.498972 207.53454,9.7522495 194.92578,9.6855469 Z"
         id="path947" />
    </g>
    <text
       id="text974"
       y="739.70496"
       x="-544.52533"
       style="font-size:472.392px;line-height:0%;font-family:sans-serif;letter-spacing:0px;word-spacing:0px;stroke-width:11.8098;opacity:0.31;"
       xml:space="preserve"><tspan
         style="font-style:normal;font-variant:normal;font-weight:100;font-stretch:normal;font-family:Lato;-inkscape-font-specification:'Lato Thin';stroke-width:11.8098;"
         y="739.70496"
         x="-544.52533"
         id="tspan972"
         sodipodi:role="line">X</tspan></text>
  </g>
</svg>
