<?xml version="1.0" encoding="UTF-8" standalone="no"?>
<svg
   xmlns:dc="http://purl.org/dc/elements/1.1/"
   xmlns:cc="http://creativecommons.org/ns#"
   xmlns:rdf="http://www.w3.org/1999/02/22-rdf-syntax-ns#"
   xmlns:svg="http://www.w3.org/2000/svg"
   xmlns="http://www.w3.org/2000/svg"
   xmlns:sodipodi="http://sodipodi.sourceforge.net/DTD/sodipodi-0.dtd"
   xmlns:inkscape="http://www.inkscape.org/namespaces/inkscape"
   version="1.1"
   id="svg928"
   width="282"
   height="133"
   viewBox="0 0 282 133"
   sodipodi:docname="LPESMirrorSymmetry.svg"
   inkscape:version="1.0alpha (40b9fe84ba, 2019-05-24, custom)"
   inkscape:export-filename="/home/jtx/Development/inkscape/content/presentations/LGM19-Get_the_Most_Out_of_Live_Path_Effects/videos/generate.source/LPESMirrorSymmetry.png"
   inkscape:export-xdpi="299.91489"
   inkscape:export-ydpi="299.91489">
  <style
     id="style1501"></style>
  <metadata
     id="metadata934">
    <rdf:RDF>
      <cc:Work
         rdf:about="">
        <dc:format>image/svg+xml</dc:format>
        <dc:type
           rdf:resource="http://purl.org/dc/dcmitype/StillImage" />
        <dc:title />
      </cc:Work>
    </rdf:RDF>
  </metadata>
  <defs
     id="defs932"><inkscape:path-effect
   split_items="false"
   oposite_fuse="true"
   fuse_paths="true"
   discard_orig_path="false"
   split_gap="-0.001"
   mode="free"
   is_visible="true"
   id="path-effect3654"
   center_point="66.582465,64.444403"
   end_point="66.927502,95.64909"
   start_point="66.927502,33.239716"
   effect="mirror_symmetry" />
<inkscape:path-effect
   effect="mirror_symmetry"
   start_point="37.419814,28.114928"
   end_point="37.419814,88.855478"
   center_point="37.016641,58.485203"
   id="path-effect2887"
   is_visible="true"
   mode="free"
   split_gap="-0.001"
   discard_orig_path="false"
   fuse_paths="false"
   oposite_fuse="false"
   split_items="true" />
<inkscape:path-effect
   id="path-effect3531" />
space between copies, use small negative gaps to fix some joins=&quot;0.05&quot;
       split_items=&quot;true&quot;
       mirror_copies=&quot;false&quot;
       copies_to_360=&quot;true&quot;
       gap=&quot;-0.0001&quot;
       rotation_angle=&quot;90&quot;
       starting_angle=&quot;0&quot;
       num_copies=&quot;4&quot;
       method=&quot;normal&quot;
       is_visible=&quot;true&quot;
       id=&quot;path-effect1629&quot;
       origin=&quot;10.366756,52.14809&quot;
       starting_point=&quot;68.08663,52.14809&quot;
       effect=&quot;copy_rotate&quot; /&gt;
  </defs>
  <sodipodi:namedview
     pagecolor="#ffffff"
     bordercolor="#666666"
     inkscape:document-rotation="0"
     borderopacity="1"
     objecttolerance="10"
     gridtolerance="10"
     guidetolerance="10"
     inkscape:pageopacity="0"
     inkscape:pageshadow="2"
     inkscape:window-width="1920"
     inkscape:window-height="1016"
     id="namedview930"
     showgrid="false"
     inkscape:zoom="1.8161794"
     inkscape:cx="117.73121"
     inkscape:cy="162.55971"
     inkscape:window-x="0"
     inkscape:window-y="27"
     inkscape:window-maximized="1"
     inkscape:current-layer="g936" />
  <g
     inkscape:groupmode="layer"
     inkscape:label="Image"
     id="g936">
    <g
       transform="matrix(0.98607089,0,0,0.98607089,-35.826388,-2.2650739)"
       id="g3652">
      <path
         inkscape:connector-curvature="0"
         id="path3579"
         style="font-style:normal;font-variant:normal;font-weight:normal;font-stretch:normal;font-size:40px;line-height:0.9;font-family:Troika;-inkscape-font-specification:Troika;letter-spacing:0px;word-spacing:0px;opacity:1;fill:#ff4bb1;fill-opacity:1;stroke:#000000;stroke-width:6;stroke-miterlimit:4;stroke-dasharray:none;stroke-opacity:1;paint-order:stroke fill markers;stop-opacity:1"
         d="m 66.582465,62.532529 6.997778,0.03722 0.08,-12.76 2.24,4.68 4.32,-0.32 2,-4.48 0.52,13 7.48,-0.52 -0.92,-24.36 -6.52,-0.24 -4.88,9.52 -4.96,-9.52 -6.357778,0.794722 -6.357777,-0.794722 -4.96,9.52 -4.88,-9.52 -6.52,0.24 -0.92,24.36 7.48,0.52 0.52,-13 2,4.48 4.32,0.32 2.24,-4.68 0.08,12.76 z" />
      <path
         inkscape:connector-curvature="0"
         id="path3581"
         style="font-style:normal;font-variant:normal;font-weight:normal;font-stretch:normal;font-size:40px;line-height:0.9;font-family:Troika;-inkscape-font-specification:Troika;letter-spacing:0px;word-spacing:0px;opacity:1;fill:#ff4bb1;fill-opacity:1;stroke:#000000;stroke-width:6;stroke-miterlimit:4;stroke-dasharray:none;stroke-opacity:1;paint-order:stroke fill markers;stop-opacity:1"
         d="m 93.834618,37.809751 0.28,24.84 7.960002,-0.52 -0.16,-24.64 z m -54.504305,0 -0.28,24.84 -7.960002,-0.52 0.16,-24.64 z" />
      <path
         inkscape:connector-curvature="0"
         id="path3583"
         style="font-style:normal;font-variant:normal;font-weight:normal;font-stretch:normal;font-size:40px;line-height:0.9;font-family:Troika;-inkscape-font-specification:Troika;letter-spacing:0px;word-spacing:0px;opacity:1;fill:#ff4bb1;fill-opacity:1;stroke:#000000;stroke-width:6;stroke-miterlimit:4;stroke-dasharray:none;stroke-opacity:1;paint-order:stroke fill markers;stop-opacity:1"
         d="m 119.78024,63.329751 7.16,-3.2 -4.92,-7.04 2.68,-1.36 -0.6,-13.4 -6.04,-1 -12,0.72 0.28,24.64 7.8,-0.12 -0.36,-7.72 1.32,-0.28 z m -106.395549,0 -7.1600003,-3.2 4.9200003,-7.04 -2.6800003,-1.36 0.6,-13.4 6.0400003,-1 12,0.72 -0.28,24.64 -7.8,-0.12 0.36,-7.72 -1.32,-0.28 z m 99.675549,-19.68 4.2,-0.08 -0.04,5.24 -4.08,0.32 z m -92.955549,0 -4.2,-0.08 0.04,5.24 4.08,0.32 z" />
      <path
         inkscape:connector-curvature="0"
         id="path3585"
         style="font-style:normal;font-variant:normal;font-weight:normal;font-stretch:normal;font-size:40px;line-height:0.9;font-family:Troika;-inkscape-font-specification:Troika;letter-spacing:0px;word-spacing:0px;opacity:1;fill:#ff4bb1;fill-opacity:1;stroke:#000000;stroke-width:6;stroke-miterlimit:4;stroke-dasharray:none;stroke-opacity:1;paint-order:stroke fill markers;stop-opacity:1"
         d="m 142.35837,63.329751 7.16,-3.2 -4.92,-7.04 2.68,-1.36 -0.6,-13.4 -6.04,-1 -12,0.72 0.28,24.64 7.8,-0.12 -0.36,-7.72 1.32,-0.28 z m -151.5518093,0 -7.1599997,-3.2 4.92,-7.04 -2.68,-1.36 0.6,-13.4 6.0399997,-1 12,0.72 -0.28,24.64 -7.8,-0.12 0.36,-7.72 -1.32,-0.28 z m 144.8318093,-19.68 4.2,-0.08 -0.04,5.24 -4.08,0.32 z m -138.1118093,0 -4.2,-0.08 0.04,5.24 4.08,0.32 z" />
      <path
         inkscape:connector-curvature="0"
         id="path3589"
         style="font-style:normal;font-variant:normal;font-weight:normal;font-stretch:normal;font-size:40px;line-height:0.9;font-family:Troika;-inkscape-font-specification:Troika;letter-spacing:0px;word-spacing:0px;opacity:1;fill:#ff4bb1;fill-opacity:1;stroke:#000000;stroke-width:6;stroke-miterlimit:4;stroke-dasharray:none;stroke-opacity:1;paint-order:stroke fill markers;stop-opacity:1"
         d="m 169.49502,37.609751 -17.2,0.28 -0.6,23.72 7.04,0.8 11.8,-0.48 0.84,-4.52 z m -205.825109,0 17.2,0.28 0.6,23.72 -7.04,0.8 -11.8,-0.48 -0.84,-4.52 z m 194.945109,17.96 0.2,-11.12 4.44,0.24 0.52,10.68 z m -184.065109,0 -0.2,-11.12 -4.44,0.24 -0.52,10.68 z" />
      <path
         inkscape:connector-curvature="0"
         id="path3591"
         style="font-style:normal;font-variant:normal;font-weight:normal;font-stretch:normal;font-size:40px;line-height:0.9;font-family:Troika;-inkscape-font-specification:Troika;letter-spacing:0px;word-spacing:0px;opacity:1;fill:#ff4bb1;fill-opacity:1;stroke:#000000;stroke-width:6;stroke-miterlimit:4;stroke-dasharray:none;stroke-opacity:1;paint-order:stroke fill markers;stop-opacity:1"
         d="m 188.22939,63.329751 7.16,-3.2 -4.92,-7.04 2.68,-1.36 -0.6,-13.4 -6.04,-1 -12,0.72 0.28,24.64 7.8,-0.12 -0.36,-7.72 1.32,-0.28 z m -243.293849,0 -7.16,-3.2 4.92,-7.04 -2.68,-1.36 0.6,-13.4 6.04,-1 12,0.72 -0.28,24.64 -7.8,-0.12 0.36,-7.72 -1.32,-0.28 z m 236.573849,-19.68 4.2,-0.08 -0.04,5.24 -4.08,0.32 z m -229.853849,0 -4.2,-0.08 0.04,5.24 4.08,0.32 z" />
      <path
         inkscape:connector-curvature="0"
         id="path3593"
         style="font-style:normal;font-variant:normal;font-weight:normal;font-stretch:normal;font-size:40px;line-height:0.9;font-family:Troika;-inkscape-font-specification:Troika;letter-spacing:0px;word-spacing:0px;opacity:1;fill:#ff4bb1;fill-opacity:1;stroke:#000000;stroke-width:6;stroke-miterlimit:4;stroke-dasharray:none;stroke-opacity:1;paint-order:stroke fill markers;stop-opacity:1"
         d="m 72.860243,74.099125 -6.277778,0.662871 -6.277777,-0.662871 -8.36,-0.28 0.04,6.68 7.2,0.04 0.28,1.72 -8.16,3.72 0.64,12.04 14.637777,1.390396 14.637778,-1.390396 0.64,-12.04 -8.16,-3.72 0.28,-1.72 7.2,-0.04 0.04,-6.68 z m -6.277778,11.151855 7.597778,4.408145 -0.12,2.28 -7.477778,-0.411621 -7.477777,0.411621 -0.12,-2.28 z" />
      <path
         inkscape:connector-curvature="0"
         id="path3595"
         style="font-style:normal;font-variant:normal;font-weight:normal;font-stretch:normal;font-size:40px;line-height:0.9;font-family:Troika;-inkscape-font-specification:Troika;letter-spacing:0px;word-spacing:0px;opacity:1;fill:#ff4bb1;fill-opacity:1;stroke:#000000;stroke-width:6;stroke-miterlimit:4;stroke-dasharray:none;stroke-opacity:1;paint-order:stroke fill markers;stop-opacity:1"
         d="m 90.680868,99.339125 7.2,-0.08 0.04,-8.96 6.160002,-4.12 1.32,-11.8 -8.040002,-0.28 -0.44,8.04 -2.24,1.48 -2.24,-1.52 -0.48,-8.16 -8,0.44 1.28,11.76 5.48,3.76 z m -48.196805,0 -7.2,-0.08 -0.04,-8.96 -6.160002,-4.12 -1.32,-11.8 8.040002,-0.28 0.44,8.04 2.24,1.48 2.24,-1.52 0.48,-8.16 8,0.44 -1.28,11.76 -5.48,3.76 z" />
      <path
         inkscape:connector-curvature="0"
         id="path3597"
         style="font-style:normal;font-variant:normal;font-weight:normal;font-stretch:normal;font-size:40px;line-height:0.9;font-family:Troika;-inkscape-font-specification:Troika;letter-spacing:0px;word-spacing:0px;opacity:1;fill:#ff4bb1;fill-opacity:1;stroke:#000000;stroke-width:6;stroke-miterlimit:4;stroke-dasharray:none;stroke-opacity:1;paint-order:stroke fill markers;stop-opacity:1"
         d="m 108.33712,74.779125 -0.48,24.16 7.52,0.04 0.08,-12.76 2.24,4.68 4.32,-0.32 2,-4.48 0.52,13 7.48,-0.52 -0.92,-24.36 -6.52,-0.24 -4.88,9.52 -4.96,-9.52 z m -83.509309,0 0.48,24.16 -7.52,0.04 -0.08,-12.76 -2.24,4.68 -4.32,-0.32 -2.0000003,-4.48 -0.52,13 -7.48,-0.52 0.92,-24.36 6.52,-0.24 4.8800003,9.52 4.96,-9.52 z" />
      <path
         inkscape:connector-curvature="0"
         id="path3599"
         style="font-style:normal;font-variant:normal;font-weight:normal;font-stretch:normal;font-size:40px;line-height:0.9;font-family:Troika;-inkscape-font-specification:Troika;letter-spacing:0px;word-spacing:0px;opacity:1;fill:#ff4bb1;fill-opacity:1;stroke:#000000;stroke-width:6;stroke-miterlimit:4;stroke-dasharray:none;stroke-opacity:1;paint-order:stroke fill markers;stop-opacity:1"
         d="m 136.07149,74.779125 -0.48,24.16 7.52,0.04 0.08,-12.76 2.24,4.68 4.32,-0.32 2,-4.48 0.52,13 7.48,-0.52 -0.92,-24.36 -6.52,-0.24 -4.88,9.52 -4.96,-9.52 z m -138.9780493,0 0.48,24.16 -7.52,0.04 -0.08,-12.76 -2.24,4.68 -4.32,-0.32 -2,-4.48 -0.52,13 -7.48,-0.52 0.92,-24.36 6.52,-0.24 4.88,9.52 4.9599997,-9.52 z" />
      <path
         inkscape:connector-curvature="0"
         id="path3601"
         style="font-style:normal;font-variant:normal;font-weight:normal;font-stretch:normal;font-size:40px;line-height:0.9;font-family:Troika;-inkscape-font-specification:Troika;letter-spacing:0px;word-spacing:0px;opacity:1;fill:#ff4bb1;fill-opacity:1;stroke:#000000;stroke-width:6;stroke-miterlimit:4;stroke-dasharray:none;stroke-opacity:1;paint-order:stroke fill markers;stop-opacity:1"
         d="m 179.12587,92.379125 -8.88,0.24 -0.04,-3.36 6.08,0.08 0.08,-5.88 -5.8,0.04 0.08,-3.2 7.6,-0.04 0.16,-6.36 -13.6,0.28 -1.52,1.04 -0.16,23.52 15.76,0.12 z m -225.086809,0 8.88,0.24 0.04,-3.36 -6.08,0.08 -0.08,-5.88 5.8,0.04 -0.08,-3.2 -7.6,-0.04 -0.16,-6.36 13.6,0.28 1.52,1.04 0.16,23.52 -15.76,0.12 z" />
      <path
         inkscape:connector-curvature="0"
         id="path3603"
         style="font-style:normal;font-variant:normal;font-weight:normal;font-stretch:normal;font-size:40px;line-height:0.9;font-family:Troika;-inkscape-font-specification:Troika;letter-spacing:0px;word-spacing:0px;opacity:1;fill:#ff4bb1;fill-opacity:1;stroke:#000000;stroke-width:6;stroke-miterlimit:4;stroke-dasharray:none;stroke-opacity:1;paint-order:stroke fill markers;stop-opacity:1"
         d="m 198.92149,73.779125 -18.76,0.4 0.08,7 5.76,-0.2 -0.08,17.92 7.84,-0.36 -0.84,-17.72 6.32,0.08 z m -264.678049,0 18.76,0.4 -0.08,7 -5.76,-0.2 0.08,17.92 -7.84,-0.36 0.84,-17.72 -6.32,0.08 z" />
      <path
         inkscape:connector-curvature="0"
         id="path3605"
         style="font-style:normal;font-variant:normal;font-weight:normal;font-stretch:normal;font-size:40px;line-height:0.9;font-family:Troika;-inkscape-font-specification:Troika;letter-spacing:0px;word-spacing:0px;opacity:1;fill:#ff4bb1;fill-opacity:1;stroke:#000000;stroke-width:6;stroke-miterlimit:4;stroke-dasharray:none;stroke-opacity:1;paint-order:stroke fill markers;stop-opacity:1"
         d="m 215.17087,99.739125 7.16,-3.2 -4.92,-7.04 2.68,-1.36 -0.6,-13.4 -6.04,-1 -12,0.72 0.28,24.64 7.8,-0.12 -0.36,-7.72 1.32,-0.28 z m -297.176809,0 -7.16,-3.2 4.92,-7.04 -2.68,-1.36 0.6,-13.4 6.04,-1 12,0.72 -0.28,24.64 -7.8,-0.12 0.36,-7.72 -1.32,-0.28 z m 290.456809,-19.68 4.2,-0.08 -0.04,5.24 -4.08,0.32 z m -283.736809,0 -4.2,-0.08 0.04,5.24 4.08,0.32 z" />
      <path
         inkscape:connector-curvature="0"
         id="path3607"
         style="font-style:normal;font-variant:normal;font-weight:normal;font-stretch:normal;font-size:40px;line-height:0.9;font-family:Troika;-inkscape-font-specification:Troika;letter-spacing:0px;word-spacing:0px;opacity:1;fill:#ff4bb1;fill-opacity:1;stroke:#000000;stroke-width:6;stroke-miterlimit:4;stroke-dasharray:none;stroke-opacity:1;paint-order:stroke fill markers;stop-opacity:1"
         d="m 229.50899,99.339125 7.2,-0.08 0.04,-8.96 6.16,-4.12 1.32,-11.8 -8.04,-0.28 -0.44,8.04 -2.24,1.48 -2.24,-1.52 -0.48,-8.16 -8,0.44 1.28,11.76 5.48,3.76 z m -325.853049,0 -7.200001,-0.08 -0.04,-8.96 -6.16,-4.12 -1.32,-11.8 8.04,-0.28 0.44,8.04 2.24,1.48 2.240001,-1.52 0.48,-8.16 8,0.44 -1.28,11.76 -5.48,3.76 z" />
      <path
         inkscape:connector-curvature="0"
         id="path3609"
         style="font-size:40px;line-height:0.9;font-family:sans-serif;letter-spacing:0px;word-spacing:0px;opacity:1;fill:#ffffff;stroke:#000000;stroke-width:6;stroke-miterlimit:4;stroke-dasharray:none;stroke-opacity:1;paint-order:stroke fill markers;stop-opacity:1"
         d="m 264.33837,73.859125 -8.16,0.36 c 0,0.96 -0.2,21.32 -0.2,21.32 l -0.16,3.12 15.12,0.36 0.2,-7.52 -7.36,0.2 z m -395.51181,0 8.16,0.36 c 0,0.96 0.2,21.32 0.2,21.32 l 0.16,3.12 -15.12,0.36 -0.2,-7.52 7.36,0.2 z" />
      <path
         inkscape:connector-curvature="0"
         id="path3611"
         style="font-size:40px;line-height:0.9;font-family:sans-serif;letter-spacing:0px;word-spacing:0px;opacity:1;fill:#ffffff;stroke:#000000;stroke-width:6;stroke-miterlimit:4;stroke-dasharray:none;stroke-opacity:1;paint-order:stroke fill markers;stop-opacity:1"
         d="m 292.51837,86.819125 -0.4,-9.6 -3.32,-3.32 -15.04,0.4 0.12,24.8 7.88,0.04 -0.28,-8.16 8.88,-0.56 z m -451.87181,0 0.4,-9.6 3.32,-3.32 15.04,0.4 -0.12,24.8 -7.88,0.04 0.28,-8.16 -8.88,-0.56 z m 440.63181,-5.96 0.36,-0.44 3.8,0.08 0.12,4.68 -4.24,0.28 z m -429.39181,0 -0.36,-0.44 -3.8,0.08 -0.12,4.68 4.24,0.28 z" />
      <path
         inkscape:connector-curvature="0"
         id="path3613"
         style="font-size:40px;line-height:0.9;font-family:sans-serif;letter-spacing:0px;word-spacing:0px;opacity:1;fill:#ffffff;stroke:#000000;stroke-width:6;stroke-miterlimit:4;stroke-dasharray:none;stroke-opacity:1;paint-order:stroke fill markers;stop-opacity:1"
         d="m 311.00087,92.379125 -8.88,0.24 -0.04,-3.36 6.08,0.08 0.08,-5.88 -5.8,0.04 0.08,-3.2 7.6,-0.04 0.16,-6.36 -13.6,0.28 -1.52,1.04 -0.16,23.52 15.76,0.12 z m -488.83681,0 8.88,0.24 0.04,-3.36 -6.08,0.08 -0.08,-5.88 5.8,0.04 -0.08,-3.2 -7.6,-0.04 -0.16,-6.36 13.6,0.28 1.52,1.04 0.16,23.52 -15.76,0.12 z" />
    </g>
  </g>
</svg>
