<?xml version="1.0" encoding="UTF-8" standalone="no"?>
<svg
  xmlns:dc="http://purl.org/dc/elements/1.1/"
  xmlns:cc="http://creativecommons.org/ns#"
  xmlns:rdf="http://www.w3.org/1999/02/22-rdf-syntax-ns#"
  xmlns:svg="http://www.w3.org/2000/svg"
  xmlns="http://www.w3.org/2000/svg"
  id="svg8"
  version="1.1"
  viewBox="0 0 317.5 317.5"
  height="1200"
  width="1200"><defs id="defs2"/>
  <metadata id="metadata5">
    <rdf:RDF>
      <cc:Work rdf:about="">
        <dc:format>image/svg+xml</dc:format>
        <dc:type rdf:resource="http://purl.org/dc/dcmitype/StillImage"/>
        <dc:title></dc:title>
      </cc:Work>
    </rdf:RDF>
  </metadata>
  <rect
    style="opacity:1;fill:#ffffff;fill-opacity:1;stroke:#37474f;stroke-width:6.35;stroke-linecap:round;stroke-linejoin:round;stroke-miterlimit:4;stroke-dasharray:none;stroke-opacity:1;paint-order:markers fill stroke;stop-opacity:1"
    id="rect964"
    width="280.01514"
    height="160.722"
    x="18.742432"
    y="78.389"
    ry="17.387476"/>
  <path
    id="path1006"
    d="m 267.20315,174.80781 v 17.34934 l -216.906291,1e-5 v -17.34935 z"
    style="opacity:1;fill:#eeeeee;fill-opacity:0.997804;stroke:#37474f;stroke-width:4.23333;stroke-linecap:round;stroke-linejoin:round;stroke-miterlimit:4;stroke-dasharray:none;stroke-opacity:1;paint-order:markers fill stroke;stop-opacity:1"/>
  <path id="path27"/>
  nodetypes=&quot;ccccc&quot; inkscape:connector-curvature=&quot;0&quot; id=&quot;rect1003&quot; d=&quot;m 177.42636,174.83724 v 0 l 18.58274,17.18213 h -18.58274 z&quot;
  style=&quot;opacity:1;fill:#e0e0e0;fill-opacity:1;stroke:none;stroke-width:2.64583;stroke-linecap:round;stroke-linejoin:round;stroke-miterlimit:4;stroke-dasharray:none;stroke-opacity:1;paint-order:markers fill stroke;stop-opacity:1&quot; /&gt;
  <path
    id="path1008"
    d="m 71.916406,174.83724 h 7.417001 l 15.780626,17.18213 H 71.916406 Z"
    style="opacity:1;fill:#e0e0e0;fill-opacity:1;stroke:none;stroke-width:2.64583;stroke-linecap:round;stroke-linejoin:round;stroke-miterlimit:4;stroke-dasharray:none;stroke-opacity:1;paint-order:markers fill stroke;stop-opacity:1"/>
  nodetypes=&quot;ccccc&quot; /&gt;
  <path nodetypes="ccccc" id="path937" d="m 178.01312,174.80781 v 17.34934 l 24.87831,0 -21.54049,-17.34934 z" style="fill:#e0e0e0;fill-opacity:1;stroke:none;stroke-width:0.264583px;stroke-linecap:butt;stroke-linejoin:miter;stroke-opacity:1"/>
  <path
    style="opacity:1;fill:none;fill-opacity:0.997804;stroke:#37474f;stroke-width:4.23333;stroke-linecap:round;stroke-linejoin:round;stroke-miterlimit:4;stroke-dasharray:none;stroke-opacity:1;paint-order:markers fill stroke;stop-opacity:1"
    d="m 267.20315,174.80781 v 17.34934 l -216.906291,1e-5 v -17.34935 z"
    id="rect944"/>
  <rect
    style="opacity:1;fill:#eeeeee;fill-opacity:0.997804;stroke:#37474f;stroke-width:4.23333;stroke-linecap:round;stroke-linejoin:round;stroke-miterlimit:4;stroke-dasharray:none;stroke-opacity:1;paint-order:markers fill stroke;stop-opacity:1"
    id="rect936"
    width="21.691582"
    height="39.841507"
    x="245.51151"
    y="134.96646"/>
  <path
    style="opacity:1;fill:#eeeeee;fill-opacity:0.997804;stroke:#37474f;stroke-width:4.23333;stroke-linecap:round;stroke-linejoin:round;stroke-miterlimit:4;stroke-dasharray:none;stroke-opacity:1;paint-order:markers fill stroke;stop-opacity:1"
    d="m 245.51147,174.80782 -14.27355,39.8415 h 14.27355 21.6917 14.27355 l -14.27355,-39.8415 z"
    id="rect938"/>
  <rect
    y="134.96631"
    x="50.296856"
    height="39.841507"
    width="21.691582"
    id="rect946"
    style="opacity:1;fill:#eeeeee;fill-opacity:0.997804;stroke:#37474f;stroke-width:4.23333;stroke-linecap:round;stroke-linejoin:round;stroke-miterlimit:4;stroke-dasharray:none;stroke-opacity:1;paint-order:markers fill stroke;stop-opacity:1"/>
  <path
    id="rect919"
    transform="scale(0.26458333)"
    d="M 208.26367 510.10938 L 229.1875 563.73633 L 230.78906 626.9707 L 272.08203 660.69141 L 272.08203 510.10938 L 208.26367 510.10938 z "
    style="opacity:1;fill:#e0e0e0;fill-opacity:1;stroke:none;stroke-width:16;stroke-linecap:round;stroke-linejoin:round;stroke-miterlimit:4;stroke-dasharray:none;stroke-opacity:1;paint-order:markers fill stroke;stop-opacity:1"/>
  <path
    id="path948"
    d="M 50.296821,174.80767 36.023273,214.64916 H 50.296821 71.988522 86.262081 L 71.988522,174.80767 Z"
    style="opacity:1;fill:#eeeeee;fill-opacity:0.997804;stroke:#37474f;stroke-width:4.23333;stroke-linecap:round;stroke-linejoin:round;stroke-miterlimit:4;stroke-dasharray:none;stroke-opacity:1;paint-order:markers fill stroke;stop-opacity:1"/>
  <path id="path35"/>
  nodetypes=&quot;ccccc&quot; inkscape:connector-curvature=&quot;0&quot; id=&quot;rect1025&quot; d=&quot;m 262.50526,134.96646 h 4.69782 v 39.84151 l -10.3806,-8.92204 c -0.32298,-9.64301 0.19909,-19.53888 5.68278,-30.91947 z&quot;
  style=&quot;opacity:1;fill:#e0e0e0;fill-opacity:1;stroke:none;stroke-width:4.23333;stroke-linecap:round;stroke-linejoin:round;stroke-miterlimit:4;stroke-dasharray:none;stroke-opacity:1;paint-order:markers fill stroke;stop-opacity:1&quot; /&gt;
  <path id="path37"/>
  nodetypes=&quot;ccssc&quot; inkscape:connector-curvature=&quot;0&quot; id=&quot;path950&quot; d=&quot;m 251.60329,134.96646 v -18.73482 c 0,-11.64376 6.24073,-17.740931 12.9812,-13.84932 16.67578,9.62776 -7.76201,31.7754 -7.76201,54.88429 v
  8.61932&quot; style=&quot;opacity:1;fill:none;stroke:#37474f;stroke-width:4.23333;stroke-linecap:round;stroke-linejoin:round;stroke-miterlimit:4;stroke-dasharray:none;stroke-opacity:1;stop-opacity:1&quot; /&gt;
  <path id="path39"/>
  nodetypes=&quot;ccccc&quot; inkscape:connector-curvature=&quot;0&quot; id=&quot;rect1022&quot; d=&quot;m 55.565711,134.96631 h 16.422728 v 39.84151 l -10.925345,-8.92188 c -0.929767,-9.22261 1.387504,-14.54626 -5.497383,-30.91963 z&quot;
  style=&quot;opacity:1;fill:#e0e0e0;fill-opacity:1;stroke:none;stroke-width:4.23333;stroke-linecap:round;stroke-linejoin:round;stroke-miterlimit:4;stroke-dasharray:none;stroke-opacity:1;paint-order:markers fill stroke;stop-opacity:1&quot; /&gt;
  <path
    id="path952"
    d="m 66.282284,134.96646 v -18.73482 c 0,-11.64376 -6.24073,-17.740931 -12.9812,-13.84932 -16.67578,9.62776 7.76201,31.7754 7.76201,54.88429 v 8.61932"
    style="opacity:1;fill:none;stroke:#37474f;stroke-width:4.23333;stroke-linecap:round;stroke-linejoin:round;stroke-miterlimit:4;stroke-dasharray:none;stroke-opacity:1;stop-opacity:1"/>
  nodetypes=&quot;ccssc&quot; /&gt;
  <path id="path42"/>
  nodetypes=&quot;cc&quot; inkscape:connector-curvature=&quot;0&quot; id=&quot;path954&quot; d=&quot;M 71.988761,167.22817 H 245.28825&quot;
  style=&quot;opacity:1;fill:#000000;fill-opacity:0;stroke:#37474f;stroke-width:4.23333;stroke-linecap:round;stroke-linejoin:miter;stroke-miterlimit:4;stroke-dasharray:none;stroke-opacity:1;stop-opacity:1&quot; /&gt;
  <rect
    style="opacity:1;fill:#eeeeee;fill-opacity:1;stroke:#37474f;stroke-width:4.23333;stroke-linecap:round;stroke-linejoin:round;stroke-miterlimit:4;stroke-dasharray:none;stroke-opacity:1;paint-order:markers fill stroke;stop-opacity:1"
    id="rect956"
    width="38.526234"
    height="42.798611"
    x="139.48689"
    y="160.35983"/>
  <path
    nodetypes="ccccc"
    id="rect925"
    transform="scale(0.26458333)"
    d="m 557.5332,742.51367 26.42732,24.35742 88.84417,0.97266 -30.33789,-25.33008 z"
    style="opacity:1;fill:#e0e0e0;fill-opacity:1;stroke:none;stroke-width:16;stroke-linecap:round;stroke-linejoin:round;stroke-miterlimit:4;stroke-dasharray:none;stroke-opacity:1;paint-order:markers fill stroke;stop-opacity:1"/>
  <path id="path45"/>
  nodetypes=&quot;cccc&quot; inkscape:connector-curvature=&quot;0&quot; id=&quot;path958&quot; d=&quot;m 139.48689,203.15844 3.70926,13.84304 3.67109,-13.84304 z&quot;
  style=&quot;opacity:1;fill:#eeeeee;fill-opacity:1;stroke:#37474f;stroke-width:2.64583;stroke-linecap:round;stroke-linejoin:round;stroke-miterlimit:4;stroke-dasharray:none;stroke-opacity:1;stop-opacity:1&quot; /&gt;
  <path
    id="path960"
    d="m 170.63277,203.15844 3.70926,13.84304 3.67109,-13.84304 z"
    style="opacity:1;fill:#eeeeee;fill-opacity:1;stroke:#37474f;stroke-width:2.64583;stroke-linecap:round;stroke-linejoin:round;stroke-miterlimit:4;stroke-dasharray:none;stroke-opacity:1;stop-opacity:1"/>
  nodetypes=&quot;cccc&quot; /&gt;
  <path id="path48"/>
  nodetypes=&quot;cccc&quot; inkscape:connector-curvature=&quot;0&quot; id=&quot;path962&quot; d=&quot;m 155.05983,203.15844 3.70926,13.84304 3.67109,-13.84304 z&quot;
  style=&quot;opacity:1;fill:#eeeeee;fill-opacity:1;stroke:#37474f;stroke-width:2.64583;stroke-linecap:round;stroke-linejoin:round;stroke-miterlimit:4;stroke-dasharray:none;stroke-opacity:1;stop-opacity:1&quot; /&gt;
  <path
    style="opacity:1;fill:#37474f;fill-opacity:1;stroke:#37474f;stroke-width:2.64583;stroke-linecap:round;stroke-linejoin:round;stroke-miterlimit:4;stroke-dasharray:none;stroke-opacity:1;stop-opacity:1"
    d="M 145.20874,183.69774 V 134.80529"
    id="path992"/>
  <path id="path51"/>
  nodetypes=&quot;cc&quot; style=&quot;opacity:1;fill:#37474f;fill-opacity:1;stroke:#37474f;stroke-width:2.64583;stroke-linecap:round;stroke-linejoin:round;stroke-miterlimit:4;stroke-dasharray:none;stroke-opacity:1;stop-opacity:1&quot; d=&quot;M
  150.89255,160.30069 V 141.27214&quot; id=&quot;path994&quot; inkscape:connector-curvature=&quot;0&quot; /&gt;
  <path id="path53"/>
  nodetypes=&quot;ccccc&quot; inkscape:connector-curvature=&quot;0&quot; id=&quot;rect1013&quot; d=&quot;m 147.5142,196.45689 h 22.4716 l 8.02731,6.70155 h -22.95328 z&quot;
  style=&quot;opacity:1;fill:#e0e0e0;fill-opacity:1;stroke:none;stroke-width:2.64583;stroke-linecap:round;stroke-linejoin:round;stroke-miterlimit:4;stroke-dasharray:none;stroke-opacity:1;paint-order:markers fill stroke;stop-opacity:1&quot; /&gt;
  <path
    style="opacity:1;fill:#37474f;fill-opacity:1;stroke:#37474f;stroke-width:2.64583;stroke-linecap:round;stroke-linejoin:round;stroke-miterlimit:4;stroke-dasharray:none;stroke-opacity:1;stop-opacity:1"
    d="M 147.51421,196.45689 H 169.9858"
    id="path996"/>
  nodetypes=&quot;cc&quot; /&gt;
  <path
    style="opacity:1;fill:none;fill-opacity:1;stroke:#37474f;stroke-width:2.64583;stroke-linecap:round;stroke-linejoin:round;stroke-miterlimit:4;stroke-dasharray:none;stroke-opacity:1;stop-opacity:1"
    d="m 163.00076,175.5603 v -24.03579 c 0,-15.76645 15.81736,-20.02449 25.76803,-10.94974 11.04792,10.07538 7.90433,28.90279 -10.87812,28.90279"
    id="path998"/>
  nodetypes=&quot;ccsc&quot; /&gt;
  <path
    id="path1018"
    d="m 169.07663,170.48893 8.91096,7.99071 0.0255,-18.11981 -8.92315,0.077 z"
    style="opacity:1;fill:#e0e0e0;fill-opacity:1;stroke:none;stroke-width:2.64583;stroke-linecap:round;stroke-linejoin:round;stroke-miterlimit:4;stroke-dasharray:none;stroke-opacity:1;paint-order:markers fill stroke;stop-opacity:1"/>
  nodetypes=&quot;ccccc&quot; /&gt;
  <path id="path58"/>
  nodetypes=&quot;ccsc&quot; style=&quot;opacity:1;fill:none;fill-opacity:1;stroke:#37474f;stroke-width:2.64583;stroke-linecap:round;stroke-linejoin:round;stroke-miterlimit:4;stroke-dasharray:none;stroke-opacity:1;stop-opacity:1&quot; d=&quot;m
  169.07663,170.48893 v -16.5013 c 0,-12.30105 10.25344,-14.50853 15.57625,-10.02889 7.78247,6.54964 7.37009,19.53847 -6.63976,19.21374&quot; id=&quot;path1000&quot; inkscape:connector-curvature=&quot;0&quot; /&gt;
  <rect
    y="160.35983"
    x="139.48689"
    height="42.798611"
    width="38.526234"
    id="rect1015"
    style="opacity:1;fill:none;fill-opacity:1;stroke:#37474f;stroke-width:4.23333;stroke-linecap:round;stroke-linejoin:round;stroke-miterlimit:4;stroke-dasharray:none;stroke-opacity:1;paint-order:markers fill stroke;stop-opacity:1"/>
  <rect
    style="opacity:1;fill:none;fill-opacity:0.997804;stroke:#37474f;stroke-width:4.23333;stroke-linecap:round;stroke-linejoin:round;stroke-miterlimit:4;stroke-dasharray:none;stroke-opacity:1;paint-order:markers fill stroke;stop-opacity:1"
    id="rect1020"
    width="21.691582"
    height="39.841507"
    x="50.296856"
    y="134.96631"/>
  <path
    id="rect931"
    transform="scale(0.26458333)"
    d="M 990.23242 510.10938 L 964.80859 581.25781 L 965.91602 626.9707 L 1009.9023 660.69141 L 1009.9023 510.10938 L 990.23242 510.10938 z "
    style="opacity:1;fill:#e0e0e0;fill-opacity:1;stroke:none;stroke-width:16;stroke-linecap:round;stroke-linejoin:round;stroke-miterlimit:4;stroke-dasharray:none;stroke-opacity:1;paint-order:markers fill stroke;stop-opacity:1"/>
  <rect
    y="134.96646"
    x="245.51151"
    height="39.841507"
    width="21.691582"
    id="rect1027"
    style="opacity:1;fill:none;fill-opacity:0.997804;stroke:#37474f;stroke-width:4.23333;stroke-linecap:round;stroke-linejoin:round;stroke-miterlimit:4;stroke-dasharray:none;stroke-opacity:1;paint-order:markers fill stroke;stop-opacity:1"/>
  <path
    style="opacity:1;fill:#eeeeee;fill-opacity:1;stroke:#37474f;stroke-width:2.64583;stroke-linecap:round;stroke-linejoin:round;stroke-miterlimit:4;stroke-dasharray:none;stroke-opacity:1;stop-opacity:1"
    d="m 155.05982,203.15844 3.70926,13.84304 3.67109,-13.84304 z"
    id="path887"/>
  <path
    id="path889"
    d="m 139.48689,203.15844 3.70926,13.84304 3.67109,-13.84304 z"
    style="opacity:1;fill:#eeeeee;fill-opacity:1;stroke:#37474f;stroke-width:2.64583;stroke-linecap:round;stroke-linejoin:round;stroke-miterlimit:4;stroke-dasharray:none;stroke-opacity:1;stop-opacity:1"/>
  <path
    style="opacity:1;fill:none;stroke:#37474f;stroke-width:4.23333;stroke-linecap:round;stroke-linejoin:round;stroke-miterlimit:4;stroke-dasharray:none;stroke-opacity:1;stop-opacity:1"
    d="m 250.34634,134.96646 v -18.73482 c 0,-11.64376 6.24073,-17.740931 12.9812,-13.84932 16.67578,9.62776 -7.76201,31.7754 -7.76201,54.88429 v 8.61932"
    id="path909"/>
  <path
    nodetypes="cc"
    id="path911"
    d="m 150.57905,160.53799 0,-18.83666"
    style="opacity:1;fill:#37474f;fill-opacity:1;stroke:#37474f;stroke-width:2.64583;stroke-linecap:round;stroke-linejoin:round;stroke-miterlimit:4;stroke-dasharray:none;stroke-opacity:1;stop-opacity:1"/>
  <path
    nodetypes="ccsc"
    id="path913"
    d="m 169.07663,170.48893 0,-15.54738 c 0,-11.29418 8.94128,-13.84021 14.79113,-9.93974 6.57031,4.38085 9.37578,16.2618 -6.13759,20.69774"
    style="opacity:1;fill:none;fill-opacity:1;stroke:#37474f;stroke-width:2.64583;stroke-linecap:round;stroke-linejoin:round;stroke-miterlimit:4;stroke-dasharray:none;stroke-opacity:1;stop-opacity:1"/>
  <path
    nodetypes="cc"
    id="path915"
    d="m 71.988434,168.30929 67.478576,0"
    style="opacity:1;fill:none;fill-opacity:0.997804;stroke:#37474f;stroke-width:4.23333;stroke-linecap:round;stroke-linejoin:round;stroke-miterlimit:4;stroke-dasharray:none;stroke-opacity:1;paint-order:markers fill stroke;stop-opacity:1"/>
  <path
    style="opacity:1;fill:none;fill-opacity:0.997804;stroke:#37474f;stroke-width:4.23333;stroke-linecap:round;stroke-linejoin:round;stroke-miterlimit:4;stroke-dasharray:none;stroke-opacity:1;paint-order:markers fill stroke;stop-opacity:1"
    d="m 178.03293,168.30929 h 67.47858"
    id="path917"
    nodetypes="cc"/>
</svg>