<?xml version="1.0" encoding="UTF-8" standalone="no"?>
<svg
  xmlns:dc="http://purl.org/dc/elements/1.1/"
  xmlns:cc="http://creativecommons.org/ns#"
  xmlns:rdf="http://www.w3.org/1999/02/22-rdf-syntax-ns#"
  xmlns:svg="http://www.w3.org/2000/svg"
  xmlns="http://www.w3.org/2000/svg"
  id="svg8"
  version="1.1"
  viewBox="0 0 317.5 317.5"
  height="1200"
  width="1200"><defs id="defs2"/>
  <metadata id="metadata5">
    <rdf:RDF>
      <cc:Work rdf:about="">
        <dc:format>image/svg+xml</dc:format>
        <dc:type rdf:resource="http://purl.org/dc/dcmitype/StillImage"/>
        <dc:title></dc:title>
      </cc:Work>
    </rdf:RDF>
  </metadata>
  <rect
    style="opacity:1;fill:#ffffff;fill-opacity:1;stroke:#37474f;stroke-width:6.35;stroke-linecap:round;stroke-linejoin:round;stroke-miterlimit:4;stroke-dasharray:none;stroke-opacity:1;paint-order:markers fill stroke;stop-opacity:1"
    id="rect964"
    width="282.4032"
    height="282.31042"
    x="17.548401"
    y="17.594788"
    ry="17.387476"/>
  <path
    nodetypes="cccc"
    id="path1006"
    d="m 247.48444,192.91697 -193.679665,2e-5 V 170.01505 H 247.48444"
    style="opacity:1;fill:#eeeeee;fill-opacity:0.997804;stroke:#37474f;stroke-width:5.58819;stroke-linecap:round;stroke-linejoin:round;stroke-miterlimit:4;stroke-dasharray:none;stroke-opacity:1;paint-order:markers fill stroke;stop-opacity:1"/>
  <path id="path27"/>
  nodetypes=&quot;ccccc&quot; inkscape:connector-curvature=&quot;0&quot; id=&quot;rect1003&quot; d=&quot;m 177.42636,174.83724 v 0 l 18.58274,17.18213 h -18.58274 z&quot;
  style=&quot;opacity:1;fill:#e0e0e0;fill-opacity:1;stroke:none;stroke-width:2.64583;stroke-linecap:round;stroke-linejoin:round;stroke-miterlimit:4;stroke-dasharray:none;stroke-opacity:1;paint-order:markers fill stroke;stop-opacity:1&quot; /&gt;
  <path
    id="path1008"
    d="m 82.34357,170.05389 h 9.790782 L 112.9655,192.7351 H 82.34357 Z"
    style="opacity:1;fill:#e0e0e0;fill-opacity:1;stroke:none;stroke-width:3.49262;stroke-linecap:round;stroke-linejoin:round;stroke-miterlimit:4;stroke-dasharray:none;stroke-opacity:1;paint-order:markers fill stroke;stop-opacity:1"/>
  nodetypes=&quot;ccccc&quot; /&gt;
  <path nodetypes="ccccc" id="path937" d="m 186.80851,170.01505 v 22.90192 h 32.84052 l -28.43444,-22.90192 z" style="fill:#e0e0e0;fill-opacity:1;stroke:none;stroke-width:0.349262px;stroke-linecap:butt;stroke-linejoin:miter;stroke-opacity:1"/>
  <path
    nodetypes="cccccccccccccc"
    style="opacity:1;fill:none;fill-opacity:0.997804;stroke:#37474f;stroke-width:5.58819;stroke-linecap:round;stroke-linejoin:round;stroke-miterlimit:4;stroke-dasharray:none;stroke-opacity:1;paint-order:markers fill stroke;stop-opacity:1"
    d="m 274.88945,192.91697 h -7.29518 m -8.33087,0 h -0.0144 m -8.6899,0 -196.754324,2e-5 V 170.01505 H 246.82777 m 9.75431,0 h 3.47401 m 10.20162,0 h 0.0946 m 13.96333,0 h 0.0547"
    id="rect944"/>
  <rect
    y="117.42244"
    x="53.804771"
    height="52.592617"
    width="28.633884"
    id="rect946"
    style="opacity:1;fill:#eeeeee;fill-opacity:0.997804;stroke:#37474f;stroke-width:5.58819;stroke-linecap:round;stroke-linejoin:round;stroke-miterlimit:4;stroke-dasharray:none;stroke-opacity:1;paint-order:markers fill stroke;stop-opacity:1"/>
  <path
    id="rect919"
    d="m 60.149227,117.42261 7.307902,18.72986 0.559365,22.08537 14.42207,11.77737 v -52.5926 z"
    style="opacity:1;fill:#e0e0e0;fill-opacity:1;stroke:none;stroke-width:5.58819;stroke-linecap:round;stroke-linejoin:round;stroke-miterlimit:4;stroke-dasharray:none;stroke-opacity:1;paint-order:markers fill stroke;stop-opacity:1"/>
  <path
    id="path948"
    d="m 53.804724,170.01486 -18.841739,52.5926 h 18.841739 28.634042 18.841754 l -18.841754,-52.5926 z"
    style="opacity:1;fill:#eeeeee;fill-opacity:0.997804;stroke:#37474f;stroke-width:5.58826;stroke-linecap:round;stroke-linejoin:round;stroke-miterlimit:4;stroke-dasharray:none;stroke-opacity:1;paint-order:markers fill stroke;stop-opacity:1"/>
  <path id="path35"/>
  nodetypes=&quot;ccccc&quot; inkscape:connector-curvature=&quot;0&quot; id=&quot;rect1025&quot; d=&quot;m 262.50526,134.96646 h 4.69782 v 39.84151 l -10.3806,-8.92204 c -0.32298,-9.64301 0.19909,-19.53888 5.68278,-30.91947 z&quot;
  style=&quot;opacity:1;fill:#e0e0e0;fill-opacity:1;stroke:none;stroke-width:4.23333;stroke-linecap:round;stroke-linejoin:round;stroke-miterlimit:4;stroke-dasharray:none;stroke-opacity:1;paint-order:markers fill stroke;stop-opacity:1&quot; /&gt;
  <path id="path37"/>
  nodetypes=&quot;ccssc&quot; inkscape:connector-curvature=&quot;0&quot; id=&quot;path950&quot; d=&quot;m 251.60329,134.96646 v -18.73482 c 0,-11.64376 6.24073,-17.740931 12.9812,-13.84932 16.67578,9.62776 -7.76201,31.7754 -7.76201,54.88429 v
  8.61932&quot; style=&quot;opacity:1;fill:none;stroke:#37474f;stroke-width:4.23333;stroke-linecap:round;stroke-linejoin:round;stroke-miterlimit:4;stroke-dasharray:none;stroke-opacity:1;stop-opacity:1&quot; /&gt;
  <path id="path39"/>
  nodetypes=&quot;ccccc&quot; inkscape:connector-curvature=&quot;0&quot; id=&quot;rect1022&quot; d=&quot;m 55.565711,134.96631 h 16.422728 v 39.84151 l -10.925345,-8.92188 c -0.929767,-9.22261 1.387504,-14.54626 -5.497383,-30.91963 z&quot;
  style=&quot;opacity:1;fill:#e0e0e0;fill-opacity:1;stroke:none;stroke-width:4.23333;stroke-linecap:round;stroke-linejoin:round;stroke-miterlimit:4;stroke-dasharray:none;stroke-opacity:1;paint-order:markers fill stroke;stop-opacity:1&quot; /&gt;
  <path
    id="path952"
    d="M 74.906269,117.42264 V 92.691813 c 0,-15.370296 -8.23805,-23.418842 -17.13578,-18.281736 -22.012795,12.709086 10.24621,41.944983 10.24621,72.449773 v 11.3779"
    style="opacity:1;fill:none;stroke:#37474f;stroke-width:5.58819;stroke-linecap:round;stroke-linejoin:round;stroke-miterlimit:4;stroke-dasharray:none;stroke-opacity:1;stop-opacity:1"/>
  nodetypes=&quot;ccssc&quot; /&gt;
  <path id="path42"/>
  nodetypes=&quot;cc&quot; inkscape:connector-curvature=&quot;0&quot; id=&quot;path954&quot; d=&quot;M 71.988761,167.22817 H 245.28825&quot;
  style=&quot;opacity:1;fill:#000000;fill-opacity:0;stroke:#37474f;stroke-width:4.23333;stroke-linecap:round;stroke-linejoin:miter;stroke-miterlimit:4;stroke-dasharray:none;stroke-opacity:1;stop-opacity:1&quot; /&gt;
  <rect
    style="opacity:1;fill:#eeeeee;fill-opacity:1;stroke:#37474f;stroke-width:5.58819;stroke-linecap:round;stroke-linejoin:round;stroke-miterlimit:4;stroke-dasharray:none;stroke-opacity:1;paint-order:markers fill stroke;stop-opacity:1"
    id="rect956"
    width="50.8564"
    height="56.496132"
    x="135.95212"
    y="150.94307"/>
  <path
    nodetypes="ccccc"
    id="rect925"
    d="m 146.54826,198.59263 9.23007,8.50713 31.0299,0.33971 -10.59589,-8.84684 z"
    style="opacity:1;fill:#e0e0e0;fill-opacity:1;stroke:none;stroke-width:5.58819;stroke-linecap:round;stroke-linejoin:round;stroke-miterlimit:4;stroke-dasharray:none;stroke-opacity:1;paint-order:markers fill stroke;stop-opacity:1"/>
  <path id="path45"/>
  nodetypes=&quot;cccc&quot; inkscape:connector-curvature=&quot;0&quot; id=&quot;path958&quot; d=&quot;m 139.48689,203.15844 3.70926,13.84304 3.67109,-13.84304 z&quot;
  style=&quot;opacity:1;fill:#eeeeee;fill-opacity:1;stroke:#37474f;stroke-width:2.64583;stroke-linecap:round;stroke-linejoin:round;stroke-miterlimit:4;stroke-dasharray:none;stroke-opacity:1;stop-opacity:1&quot; /&gt;
  <path
    id="path960"
    d="m 177.06611,207.43918 4.8964,18.27345 4.846,-18.27345 z"
    style="opacity:1;fill:#eeeeee;fill-opacity:1;stroke:#37474f;stroke-width:3.49262;stroke-linecap:round;stroke-linejoin:round;stroke-miterlimit:4;stroke-dasharray:none;stroke-opacity:1;stop-opacity:1"/>
  nodetypes=&quot;cccc&quot; /&gt;
  <path id="path48"/>
  nodetypes=&quot;cccc&quot; inkscape:connector-curvature=&quot;0&quot; id=&quot;path962&quot; d=&quot;m 155.05983,203.15844 3.70926,13.84304 3.67109,-13.84304 z&quot;
  style=&quot;opacity:1;fill:#eeeeee;fill-opacity:1;stroke:#37474f;stroke-width:2.64583;stroke-linecap:round;stroke-linejoin:round;stroke-miterlimit:4;stroke-dasharray:none;stroke-opacity:1;stop-opacity:1&quot; /&gt;
  <path
    style="opacity:1;fill:#37474f;fill-opacity:1;stroke:#37474f;stroke-width:3.49262;stroke-linecap:round;stroke-linejoin:round;stroke-miterlimit:4;stroke-dasharray:none;stroke-opacity:1;stop-opacity:1"
    d="M 143.50523,181.75016 V 117.20988"
    id="path992"/>
  <path id="path51"/>
  nodetypes=&quot;cc&quot; style=&quot;opacity:1;fill:#37474f;fill-opacity:1;stroke:#37474f;stroke-width:2.64583;stroke-linecap:round;stroke-linejoin:round;stroke-miterlimit:4;stroke-dasharray:none;stroke-opacity:1;stop-opacity:1&quot; d=&quot;M
  150.89255,160.30069 V 141.27214&quot; id=&quot;path994&quot; inkscape:connector-curvature=&quot;0&quot; /&gt;
  <path id="path53"/>
  nodetypes=&quot;ccccc&quot; inkscape:connector-curvature=&quot;0&quot; id=&quot;rect1013&quot; d=&quot;m 147.5142,196.45689 h 22.4716 l 8.02731,6.70155 h -22.95328 z&quot;
  style=&quot;opacity:1;fill:#e0e0e0;fill-opacity:1;stroke:none;stroke-width:2.64583;stroke-linecap:round;stroke-linejoin:round;stroke-miterlimit:4;stroke-dasharray:none;stroke-opacity:1;paint-order:markers fill stroke;stop-opacity:1&quot; /&gt;
  <path
    style="opacity:1;fill:#37474f;fill-opacity:1;stroke:#37474f;stroke-width:3.49262;stroke-linecap:round;stroke-linejoin:round;stroke-miterlimit:4;stroke-dasharray:none;stroke-opacity:1;stop-opacity:1"
    d="m 146.54855,198.59283 h 29.66353"
    id="path996"/>
  nodetypes=&quot;cc&quot; /&gt;
  <path
    style="opacity:1;fill:none;fill-opacity:1;stroke:#37474f;stroke-width:3.49262;stroke-linecap:round;stroke-linejoin:round;stroke-miterlimit:4;stroke-dasharray:none;stroke-opacity:1;stop-opacity:1"
    d="m 166.99151,171.00837 v -31.72835 c 0,-20.81243 20.87964,-26.43324 34.01498,-14.45416 14.58376,13.29996 10.43408,38.15301 -14.35961,38.15301"
    id="path998"/>
  nodetypes=&quot;ccsc&quot; /&gt;
  <path
    id="path1018"
    d="m 175.01193,164.31393 11.76288,10.54811 0.0336,-23.91899 -11.77896,0.10164 z"
    style="opacity:1;fill:#e0e0e0;fill-opacity:1;stroke:none;stroke-width:3.49262;stroke-linecap:round;stroke-linejoin:round;stroke-miterlimit:4;stroke-dasharray:none;stroke-opacity:1;paint-order:markers fill stroke;stop-opacity:1"/>
  nodetypes=&quot;ccccc&quot; /&gt;
  <path id="path58"/>
  nodetypes=&quot;ccsc&quot; style=&quot;opacity:1;fill:none;fill-opacity:1;stroke:#37474f;stroke-width:2.64583;stroke-linecap:round;stroke-linejoin:round;stroke-miterlimit:4;stroke-dasharray:none;stroke-opacity:1;stop-opacity:1&quot; d=&quot;m
  169.07663,170.48893 v -16.5013 c 0,-12.30105 10.25344,-14.50853 15.57625,-10.02889 7.78247,6.54964 7.37009,19.53847 -6.63976,19.21374&quot; id=&quot;path1000&quot; inkscape:connector-curvature=&quot;0&quot; /&gt;
  <rect
    y="150.94307"
    x="135.95212"
    height="56.496132"
    width="50.8564"
    id="rect1015"
    style="opacity:1;fill:none;fill-opacity:1;stroke:#37474f;stroke-width:5.58819;stroke-linecap:round;stroke-linejoin:round;stroke-miterlimit:4;stroke-dasharray:none;stroke-opacity:1;paint-order:markers fill stroke;stop-opacity:1"/>
  <rect
    style="opacity:1;fill:none;fill-opacity:0.997804;stroke:#37474f;stroke-width:5.58819;stroke-linecap:round;stroke-linejoin:round;stroke-miterlimit:4;stroke-dasharray:none;stroke-opacity:1;paint-order:markers fill stroke;stop-opacity:1"
    id="rect1020"
    width="28.633884"
    height="52.592617"
    x="53.804771"
    y="117.42244"/>
  <path
    style="opacity:1;fill:#eeeeee;fill-opacity:1;stroke:#37474f;stroke-width:3.49262;stroke-linecap:round;stroke-linejoin:round;stroke-miterlimit:4;stroke-dasharray:none;stroke-opacity:1;stop-opacity:1"
    d="m 156.5091,207.43918 4.89639,18.27345 4.84601,-18.27345 z"
    id="path887"/>
  <path
    id="path889"
    d="m 135.95212,207.43918 4.89639,18.27345 4.84601,-18.27345 z"
    style="opacity:1;fill:#eeeeee;fill-opacity:1;stroke:#37474f;stroke-width:3.49262;stroke-linecap:round;stroke-linejoin:round;stroke-miterlimit:4;stroke-dasharray:none;stroke-opacity:1;stop-opacity:1"/>
  <path
    nodetypes="cc"
    id="path911"
    d="M 150.59428,151.17823 V 126.31297"
    style="opacity:1;fill:#37474f;fill-opacity:1;stroke:#37474f;stroke-width:3.49262;stroke-linecap:round;stroke-linejoin:round;stroke-miterlimit:4;stroke-dasharray:none;stroke-opacity:1;stop-opacity:1"/>
  <path
    nodetypes="ccsc"
    id="path913"
    d="m 175.01193,164.31393 v -20.52326 c 0,-14.90883 11.80291,-18.26972 19.52498,-13.12091 8.6731,5.78292 12.37646,21.46632 -8.1019,27.32196"
    style="opacity:1;fill:none;fill-opacity:1;stroke:#37474f;stroke-width:3.49262;stroke-linecap:round;stroke-linejoin:round;stroke-miterlimit:4;stroke-dasharray:none;stroke-opacity:1;stop-opacity:1"/>
  <path
    nodetypes="cc"
    id="path915"
    d="M 82.438649,161.4367 H 135.95212"
    style="opacity:1;fill:none;fill-opacity:0.997804;stroke:#37474f;stroke-width:5.58819;stroke-linecap:round;stroke-linejoin:round;stroke-miterlimit:4;stroke-dasharray:none;stroke-opacity:1;paint-order:markers fill stroke;stop-opacity:1"/>
  <path
    style="opacity:1;fill:none;fill-opacity:0.997804;stroke:#37474f;stroke-width:5.58819;stroke-linecap:round;stroke-linejoin:round;stroke-miterlimit:4;stroke-dasharray:none;stroke-opacity:1;paint-order:markers fill stroke;stop-opacity:1"
    d="m 186.7937,161.4367 h 58.5265 m 13.19633,0 h 0.45447 m 6.77019,0 h 0.15186 m 13.91854,0 h 4.60471"
    id="path917"
    nodetypes="cccccccc"/>
</svg>