<?xml version="1.0" encoding="UTF-8" standalone="no"?>
<svg
   xmlns:dc="http://purl.org/dc/elements/1.1/"
   xmlns:cc="http://creativecommons.org/ns#"
   xmlns:rdf="http://www.w3.org/1999/02/22-rdf-syntax-ns#"
   xmlns:svg="http://www.w3.org/2000/svg"
   xmlns="http://www.w3.org/2000/svg"
   xmlns:sodipodi="http://sodipodi.sourceforge.net/DTD/sodipodi-0.dtd"
   xmlns:inkscape="http://www.inkscape.org/namespaces/inkscape"
   version="1.1"
   id="svg928"
   width="282"
   height="133"
   viewBox="0 0 282 133"
   sodipodi:docname="LPESCloneOriginal.svg"
   inkscape:version="1.0alpha (40b9fe84ba, 2019-05-24, custom)"
   inkscape:export-filename="/home/jtx/Development/inkscape/content/presentations/LGM19-Get_the_Most_Out_of_Live_Path_Effects/videos/cloneoriginal.source/LPESCloneOriginal.png"
   inkscape:export-xdpi="299.91489"
   inkscape:export-ydpi="299.91489">
  <style
     id="style1501"></style>
  <metadata
     id="metadata934">
    <rdf:RDF>
      <cc:Work
         rdf:about="">
        <dc:format>image/svg+xml</dc:format>
        <dc:type
           rdf:resource="http://purl.org/dc/dcmitype/StillImage" />
        <dc:title></dc:title>
      </cc:Work>
    </rdf:RDF>
  </metadata>
  <defs
     id="defs932"><marker
   inkscape:stockid="Arrow1Mend"
   orient="auto"
   refY="0.0"
   refX="0.0"
   id="Arrow1Mend"
   style="overflow:visible;"
   inkscape:isstock="true">
  <path
     id="path3244"
     d="M 0.0,0.0 L 5.0,-5.0 L -12.5,0.0 L 5.0,5.0 L 0.0,0.0 z "
     style="fill-rule:evenodd;stroke:#000000;stroke-width:1pt;stroke-opacity:1;fill:#000000;fill-opacity:1"
     transform="scale(0.4) rotate(180) translate(10,0)" />
</marker>
<marker
   inkscape:stockid="Arrow1Mstart"
   orient="auto"
   refY="0.0"
   refX="0.0"
   id="Arrow1Mstart"
   style="overflow:visible"
   inkscape:isstock="true">
  <path
     id="path3241"
     d="M 0.0,0.0 L 5.0,-5.0 L -12.5,0.0 L 5.0,5.0 L 0.0,0.0 z "
     style="fill-rule:evenodd;stroke:#000000;stroke-width:1pt;stroke-opacity:1;fill:#000000;fill-opacity:1"
     transform="scale(0.4) translate(10,0)" />
</marker>
<inkscape:path-effect
   split_items="false"
   oposite_fuse="true"
   fuse_paths="true"
   discard_orig_path="false"
   split_gap="-0.001"
   mode="free"
   is_visible="true"
   id="path-effect3654"
   center_point="66.582465,64.444403"
   end_point="66.927502,95.64909"
   start_point="66.927502,33.239716"
   effect="mirror_symmetry" />
<inkscape:path-effect
   effect="mirror_symmetry"
   start_point="37.419814,28.114928"
   end_point="37.419814,88.855478"
   center_point="37.016641,58.485203"
   id="path-effect2887"
   is_visible="true"
   mode="free"
   split_gap="-0.001"
   discard_orig_path="false"
   fuse_paths="false"
   oposite_fuse="false"
   split_items="true" />
<inkscape:path-effect
   id="path-effect3531" />


space between copies, use small negative gaps to fix some joins=&quot;0.05&quot;
       split_items=&quot;true&quot;
       mirror_copies=&quot;false&quot;
       copies_to_360=&quot;true&quot;
       gap=&quot;-0.0001&quot;
       rotation_angle=&quot;90&quot;
       starting_angle=&quot;0&quot;
       num_copies=&quot;4&quot;
       method=&quot;normal&quot;
       is_visible=&quot;true&quot;
       id=&quot;path-effect1629&quot;
       origin=&quot;10.366756,52.14809&quot;
       starting_point=&quot;68.08663,52.14809&quot;
       effect=&quot;copy_rotate&quot; /&gt;
  </defs>
  <sodipodi:namedview
     pagecolor="#ffffff"
     bordercolor="#666666"
     inkscape:document-rotation="0"
     borderopacity="1"
     objecttolerance="10"
     gridtolerance="10"
     guidetolerance="10"
     inkscape:pageopacity="0"
     inkscape:pageshadow="2"
     inkscape:window-width="1920"
     inkscape:window-height="1016"
     id="namedview930"
     showgrid="false"
     inkscape:zoom="2.3560768"
     inkscape:cx="129.5022"
     inkscape:cy="127.95675"
     inkscape:window-x="0"
     inkscape:window-y="27"
     inkscape:window-maximized="1"
     inkscape:current-layer="g936" />
  <g
     inkscape:groupmode="layer"
     inkscape:label="Image"
     id="g936">
    <text
       id="text1464"
       y="55.606133"
       x="29.581423"
       style="font-style:normal;font-variant:normal;font-weight:normal;font-stretch:normal;font-size:40px;line-height:0.9;font-family:Troika;-inkscape-font-specification:Troika;letter-spacing:0px;word-spacing:0px;fill:#ff4bb1;fill-opacity:1;stroke:#000000;stroke-width:6.069;stroke-miterlimit:4;stroke-dasharray:none;paint-order:stroke fill markers"
       xml:space="preserve"><tspan
         y="55.606133"
         x="29.581423"
         id="tspan1458"
         sodipodi:role="line">CLONE</tspan><tspan
         id="tspan1462"
         y="91.606125"
         x="29.581423"
         sodipodi:role="line">ORIGINAL <tspan
   id="tspan1460"
   style="fill:#ffffff;fill-opacity:1">LPE</tspan></tspan></text>
    <text
       xml:space="preserve"
       style="font-style:normal;font-variant:normal;font-weight:normal;font-stretch:normal;font-size:18.6385px;line-height:0.9;font-family:Troika;-inkscape-font-specification:Troika;letter-spacing:0px;word-spacing:0px;fill:#ff4bb1;fill-opacity:1;stroke:#000000;stroke-width:2.82800007;stroke-miterlimit:4;stroke-dasharray:none;paint-order:stroke fill markers;stroke-dashoffset:0;"
       x="138.06039"
       y="40.025146"
       id="text3227"><tspan
         style="stroke-width:2.82800007;stroke-miterlimit:4;stroke-dasharray:none;stroke-dashoffset:0;fill:#ffffff;fill-opacity:1;stroke:#000000;stroke-opacity:1"
         sodipodi:role="line"
         id="tspan3225"
         x="138.06039"
         y="40.025146">CLONE</tspan><tspan
         style="stroke-width:2.82800007;stroke-miterlimit:4;stroke-dasharray:none;stroke-dashoffset:0;fill:#ff4bb1;fill-opacity:1;"
         sodipodi:role="line"
         x="138.06039"
         y="56.799789"
         id="tspan3229"><tspan
   id="tspan1478"
   style="fill:#ffffff;fill-opacity:1">ORIGINAL</tspan> LPE</tspan></text>
  </g>
</svg>
